{
    "photos": {
        "page": 1,
        "pages": 51989,
        "perpage": 5,
        "total": 259942,
        "photo": [
            {
                "id": "52663187230",
                "owner": "165816938@N03",
                "secret": "3c0b1465a7",
                "server": "65535",
                "farm": 66,
                "title": "Donat",
                "ispublic": 1,
                "isfriend": 0,
                "isfamily": 0
            },
            {
                "id": "52662247857",
                "owner": "165816938@N03",
                "secret": "acd1bfe3ab",
                "server": "65535",
                "farm": 66,
                "title": "Donat",
                "ispublic": 1,
                "isfriend": 0,
                "isfamily": 0
            },
            {
                "id": "52662749416",
                "owner": "165816938@N03",
                "secret": "023f998d61",
                "server": "65535",
                "farm": 66,
                "title": "Donat",
                "ispublic": 1,
                "isfriend": 0,
                "isfamily": 0
            },
            {
                "id": "52663244063",
                "owner": "165816938@N03",
                "secret": "425f061160",
                "server": "65535",
                "farm": 66,
                "title": "Donat",
                "ispublic": 1,
                "isfriend": 0,
                "isfamily": 0
            },
            {
                "id": "52663186560",
                "owner": "165816938@N03",
                "secret": "f1d1850402",
                "server": "65535",
                "farm": 66,
                "title": "Donat",
                "ispublic": 1,
                "isfriend": 0,
                "isfamily": 0
            }
        ]
    },
    "stat": "ok"
}
